[
	{
		"_id": "a-01",
		"_parentId": "co-01",
		"_type": "article",
		"_classes": "",
		"title": "a-05",
		"displayTitle": "",
		"body": ""
	},
	{
		"_id": "a-02",
		"_parentId": "co-02",
		"_type": "article",
		"_classes": "",
		"title": "a-05",
		"displayTitle": "",
		"body": ""
	},
	{
		"_id": "a-03",
		"_parentId": "co-03",
		"_type": "article",
		"_classes": "",
		"title": "a-05",
		"displayTitle": "",
		"body": ""
	},
	{
		"_id": "a-04",
		"_parentId": "co-04",
		"_type": "article",
		"_classes": "",
		"title": "a-05",
		"displayTitle": "",
		"body": ""
	},
	{
		"_id": "a-05",
		"_parentId": "co-05",
		"_type": "article",
		"_classes": "",
		"title": "a-05",
		"displayTitle": "",
		"body": ""
	},
	{
		"_id": "a-06",
		"_parentId": "co-06",
		"_type": "article",
		"_classes": "",
		"title": "a-05",
		"displayTitle": "",
		"body": ""
	}
]
